
  _    _  _____ _____            _   _             _   _ _           
 | |  | |/ ____/ ____|          | \ | |           | | (_) |          
 | |  | | (___| (___    ______  |  \| | __ _ _   _| |_ _| |_   _ ___ 
 | |  | |\___ \\___ \  |______| | . ` |/ _` | | | | __| | | | | / __|
 | |__| |____) |___) |          | |\  | (_| | |_| | |_| | | |_| \__ \
  \____/|_____/_____/           |_| \_|\__,_|\__,_|\__|_|_|\__,_|___/
                                                                     
                                                                     
